10.000000 -> 8.040000
8.000000 -> 6.950000
13.000000 -> 7.580000
9.000000 -> 8.810000
11.000000 -> 8.330000
14.000000 -> 9.960000
6.000000 -> 7.240000
4.000000 -> 4.260000
12.000000 -> 10.840000
7.000000 -> 4.820000
5.000000 -> 5.680000
0.000000 -> 0.000000
8.040000 -> 0.000000
6.950000 -> 2.000000
7.580000 -> 4.000000
8.810000 -> 6.000000
8.330000 -> 8.000000
9.960000 -> 10.000000
7.240000 -> 12.000000
4.260000 -> 14.000000
