-1.000000 -> 1.000000
-0.900000 -> 1.015200
-0.800000 -> 0.947200
-0.700000 -> 0.823200
-0.600000 -> 0.667200
-0.500000 -> 0.500000
-0.400000 -> 0.339200
-0.300000 -> 0.199200
-0.200000 -> 0.091200
-0.100000 -> 0.023200
0.000000 -> 0.000000
0.100000 -> 0.023200
0.200000 -> 0.091200
0.300000 -> 0.199200
0.400000 -> 0.339200
0.500000 -> 0.500000
0.600000 -> 0.667200
0.700000 -> 0.823200
0.800000 -> 0.947200
0.900000 -> 1.015200
1.000000 -> 1.000000
